{
    "nom": "Jeu de test",
    "niveaux": [
        {
            "id":0,
            "nom":"Seconde",
            "poids": "2nd",
            "sections":[{"id":1, "nom":"2GT", "heures":5.75, "nb": 2, "groupe": 1, "prof":[]}]
        },
        {
            "id":1,
            "nom":"1ere",
            "poids":"tal",
            "sections":[{"id":2, "nom":"1STMG1", "heures":4, "nb": 1, "groupe": 2, "prof":[1]},
                        {"id":3, "nom":"1STI2D", "heures":6, "nb": 3, "groupe": 2, "prof":[2,6]},
                        {"id":4, "nom":"1GE", "heures":3, "nb": 1, "groupe": 4, "prof":[]}]
        },
        {
            "id":2,
            "nom":"Term",
            "poids":"tal",
            "sections":[{"id":5, "nom":"TAC", "heures":6, "nb": 2, "groupe": 5, "prof":[]},
                        {"id":6, "nom":"TS1", "heures":7, "nb": 1, "groupe": 6, "prof":[]},
                        {"id":7, "nom":"ISN", "heures":2, "nb": 1, "groupe": 6, "prof":[]},
                        {"id":8, "nom":"TSTMG", "heures":2, "nb": 3, "groupe": 8, "prof":[6]}]
        },
        {
            "id":3,
            "nom":"bts",
            "poids":"bts",
            "sections":[{"id": 9, "nom":"S1AMCR", "heures":6, "nb": 1, "groupe": 9, "prof":[]},
                        {"id":10, "nom":"S2AMCR", "heures":5, "nb": 1, "groupe": 9, "prof":[]},
                        {"id":11, "nom":"S1TM", "heures":3, "nb": 1, "groupe": 11, "prof":[]},
                        {"id":12, "nom":"S2TM", "heures":3, "nb": 1, "groupe": 11, "prof":[]},
                        {"id":13, "nom":"S1CPI", "heures":4, "nb": 1, "groupe": 13, "prof":[]},
                        {"id":14, "nom":"S2CPI", "heures":3, "nb": 1, "groupe": 13, "prof":[]}]
        }
    ],
    "profs": [
        {
            "id":1,
            "nom":"Bernoulli",
            "heure_min":15, "heure_max":17,
            "classe_identique":2,
            "affinite_simple":[], "affinite_forte":[], "rejet_simple":[], "rejet_fort":[],
            "classe_non_attribuable":[], "classe_imposee":[1]
        },
        {
            "id":2,
            "nom":"Banach",
            "heure_min":18, "heure_max":20,
            "classe_identique":2,
            "affinite_simple":[3], "affinite_forte":[2], "rejet_simple":[1], "rejet_fort":[],
            "classe_non_attribuable":[], "classe_imposee":[]},
        {
            "id":3,
            "nom":"Euler",
            "heure_min":12, "heure_max":12,
            "classe_identique":2,
            "affinite_simple":[], "affinite_forte":[], "rejet_simple":[], "rejet_fort":[8],
            "classe_non_attribuable":[], "classe_imposee":[]
        },
        {
            "id":4,
            "nom":"Cantor",
            "heure_min":18, "heure_max":22,
            "classe_identique":2,
            "affinite_simple":[], "affinite_forte":[], "rejet_simple":[], "rejet_fort":[],
            "classe_non_attribuable":[], "classe_imposee":[]
        },
        {
            "id":5,
            "nom":"Werner",
            "heure_min":18, "heure_max":21,
            "classe_identique":2,
            "affinite_simple":[], "affinite_forte":[], "rejet_simple":[], "rejet_fort":[],
            "classe_non_attribuable":[], "classe_imposee":[11,12]
        },
        {
            "id":6,
            "nom":"Pascal",
            "heure_min":15, "heure_max":22,
            "classe_identique":2,
            "affinite_simple":[], "affinite_forte":[], "rejet_simple":[], "rejet_fort":[],
            "classe_non_attribuable":[], "classe_imposee":[]
        },
        {
            "id":7,
            "nom":"Fibonacci",
            "heure_min":18, "heure_max":19,
            "classe_identique":2,
            "affinite_simple":[], "affinite_forte":[], "rejet_simple":[], "rejet_fort":[],
            "classe_non_attribuable":[], "classe_imposee":[]
        },
        {
            "id":10,
            "nom":"BMP",
            "heure_min":0, "heure_max":22,
            "classe_identique":10,
            "affinite_simple":[], "affinite_forte":[], "rejet_simple":[], "rejet_fort":[],
            "classe_non_attribuable":[], "classe_imposee":[]
        }
    ],
    "recuit": {
        "poids_affinite_simple": 7,
        "poids_affinite_forte": 10,
        "poids_rejet_simple": -5,
        "poids_rejet_fort": -10,
        "poids_quota_non_atteint": -10,
        "poids_quota_depasse": -3,
        "poids_classe_identique": -10,
        "temperature_initiale": 100,
        "temperature_finale": 0.001,
        "facteur_temperature": 0.99,
        "etapes_intermediaires": 10
    }
}

